02:58:43 PM IST.252: CPU Name: Intel(R) Core(TM) i7-10510U CPU @ 1.80GHz
02:58:43 PM IST.252: CPU Speed: 3400.000MHz
02:58:43 PM IST.252: Physical Cores: 4, Logical Cores: 8
02:58:43 PM IST.252: Physical Memory: 7790MB Total, 561MB Free
02:58:43 PM IST.252: Kernel Version: Linux 5.15.8-76051508-generic
02:58:43 PM IST.252: Distribution: "Pop!_OS" "21.10"
02:58:43 PM IST.252: Session Type: x11
02:58:43 PM IST.252: Window System: X11.0, Vendor: The X.Org Foundation, Version: 1.20.13
02:58:43 PM IST.253: Portable mode: false
02:58:43 PM IST.309: OBS 27.0.1+dfsg1-1 (linux)
02:58:43 PM IST.309: ---------------------------------
02:58:43 PM IST.309: ---------------------------------
02:58:43 PM IST.309: audio settings reset:
02:58:43 PM IST.309: 	samples per sec: 48000
02:58:43 PM IST.309: 	speakers:        2
02:58:43 PM IST.320: ---------------------------------
02:58:43 PM IST.320: Initializing OpenGL...
02:58:43 PM IST.374: Loading up OpenGL on adapter NVIDIA Corporation NVIDIA GeForce MX250/PCIe/SSE2
02:58:43 PM IST.374: OpenGL loaded successfully, version 3.3.0 NVIDIA 470.86, shading language 3.30 NVIDIA via Cg compiler
02:58:43 PM IST.384: ---------------------------------
02:58:43 PM IST.384: video settings reset:
02:58:43 PM IST.384: 	base resolution:   1920x1080
02:58:43 PM IST.384: 	output resolution: 1280x720
02:58:43 PM IST.384: 	downscale filter:  Bicubic
02:58:43 PM IST.384: 	fps:               30/1
02:58:43 PM IST.384: 	format:            NV12
02:58:43 PM IST.384: 	YUV mode:          709/Partial
02:58:43 PM IST.384: NV12 texture support not available
02:58:43 PM IST.385: Audio monitoring device:
02:58:43 PM IST.385: 	name: Default
02:58:43 PM IST.385: 	id: default
02:58:43 PM IST.385: ---------------------------------
02:58:43 PM IST.387: Failed to load 'en-US' text for module: 'decklink-captions.so'
02:58:43 PM IST.389: Failed to load 'en-US' text for module: 'decklink-ouput-ui.so'
02:58:43 PM IST.435: A DeckLink iterator could not be created.  The DeckLink drivers may not be installed
02:58:43 PM IST.435: No blackmagic support
02:58:43 PM IST.447: v4l2loopback not installed, virtual camera disabled
02:58:43 PM IST.494: NVENC supported
02:58:43 PM IST.494: FFMPEG VAAPI supported
02:58:43 PM IST.504: VLC found, VLC video source enabled
02:58:43 PM IST.504: ---------------------------------
02:58:43 PM IST.504:   Loaded Modules:
02:58:43 PM IST.504:     vlc-video.so
02:58:43 PM IST.504:     text-freetype2.so
02:58:43 PM IST.504:     rtmp-services.so
02:58:43 PM IST.504:     obs-x264.so
02:58:43 PM IST.504:     obs-transitions.so
02:58:43 PM IST.504:     obs-outputs.so
02:58:43 PM IST.504:     obs-filters.so
02:58:43 PM IST.504:     obs-ffmpeg.so
02:58:43 PM IST.504:     linux-v4l2.so
02:58:43 PM IST.504:     linux-pulseaudio.so
02:58:43 PM IST.504:     linux-jack.so
02:58:43 PM IST.504:     linux-decklink.so
02:58:43 PM IST.504:     linux-capture.so
02:58:43 PM IST.504:     linux-alsa.so
02:58:43 PM IST.504:     image-source.so
02:58:43 PM IST.504:     frontend-tools.so
02:58:43 PM IST.504:     decklink-ouput-ui.so
02:58:43 PM IST.504:     decklink-captions.so
02:58:43 PM IST.504: ---------------------------------
02:58:43 PM IST.504: ==== Startup complete ===============================================
02:58:43 PM IST.508: All scene data cleared
02:58:43 PM IST.508: ------------------------------------------------
02:58:43 PM IST.514: pulse-input: Server name: 'pulseaudio 15.0'
02:58:43 PM IST.514: pulse-input: Audio format: s16le, 44100 Hz, 2 channels
02:58:43 PM IST.514: pulse-input: Started recording from 'alsa_output.pci-0000_00_1f.3.analog-stereo.monitor'
02:58:43 PM IST.514: [Loaded global audio device]: 'Desktop Audio'
02:58:43 PM IST.515: pulse-input: Server name: 'pulseaudio 15.0'
02:58:43 PM IST.515: pulse-input: Audio format: s16le, 44100 Hz, 2 channels
02:58:43 PM IST.515: pulse-input: Started recording from 'alsa_input.pci-0000_00_1f.3.analog-stereo'
02:58:43 PM IST.515: [Loaded global audio device]: 'Mic/Aux'
02:58:43 PM IST.519: xcompcap: [window-capture: 'Window Capture (Xcomposite)'] update settings:
02:58:43 PM IST.519: 	title: mk7 - YouTube - Chromium
02:58:43 PM IST.519: 	class: chromium-browser
02:58:43 PM IST.519: 	Bit depth: 32
02:58:43 PM IST.519: 	Found proper GLXFBConfig (in 9): yes
02:58:43 PM IST.519: 
02:58:43 PM IST.519: Switched to scene 'Scene'
02:58:43 PM IST.519: ------------------------------------------------
02:58:43 PM IST.519: Loaded scenes:
02:58:43 PM IST.519: - scene 'Scene':
02:58:43 PM IST.521:     - source: 'Window Capture (Xcomposite)' (xcomposite_input)
02:58:43 PM IST.521: ------------------------------------------------
02:58:44 PM IST.069: adding 42 milliseconds of audio buffering, total audio buffering is now 42 milliseconds (source: Mic/Aux)
02:58:44 PM IST.069: 
02:58:53 PM IST.212: User added source 'VLC Video Source' (vlc_source) to scene 'Scene'
03:01:02 PM IST.166: ==== Shutting down ==================================================
03:01:02 PM IST.170: xcompcap: cleanup glXReleaseTexImageEXT failed: GLXBadPixmap
03:01:02 PM IST.170: xcompcap: cleanup glXDestroyPixmap failed: GLXBadPixmap
03:01:02 PM IST.194: pulse-input: Stopped recording from 'alsa_output.pci-0000_00_1f.3.analog-stereo.monitor'
03:01:02 PM IST.194: pulse-input: Got 18204 packets with 6115244 frames
03:01:02 PM IST.195: pulse-input: Stopped recording from 'alsa_input.pci-0000_00_1f.3.analog-stereo'
03:01:02 PM IST.195: pulse-input: Got 14297 packets with 6115344 frames
03:01:02 PM IST.195: All scene data cleared
03:01:02 PM IST.195: ------------------------------------------------
03:01:02 PM IST.269: [Scripting] Total detached callbacks: 0
03:01:02 PM IST.275: Freeing OBS context data
03:01:02 PM IST.290: == Profiler Results =============================
03:01:02 PM IST.290: run_program_init: 539.896 ms
03:01:02 PM IST.290:  ┣OBSApp::AppInit: 4.302 ms
03:01:02 PM IST.290:  ┃ ┗OBSApp::InitLocale: 2.752 ms
03:01:02 PM IST.290:  ┗OBSApp::OBSInit: 412.917 ms
03:01:02 PM IST.290:    ┣obs_startup: 19.702 ms
03:01:02 PM IST.290:    ┗OBSBasic::OBSInit: 337.455 ms
03:01:02 PM IST.290:      ┣OBSBasic::InitBasicConfig: 0.08 ms
03:01:02 PM IST.290:      ┣OBSBasic::ResetAudio: 0.093 ms
03:01:02 PM IST.290:      ┣OBSBasic::ResetVideo: 75.657 ms
03:01:02 PM IST.290:      ┣OBSBasic::InitOBSCallbacks: 0.004 ms
03:01:02 PM IST.290:      ┣OBSBasic::InitHotkeys: 0.034 ms
03:01:02 PM IST.290:      ┣obs_load_all_modules: 119.447 ms
03:01:02 PM IST.290:      ┃ ┣obs_init_module(decklink-captions.so): 0.033 ms
03:01:02 PM IST.290:      ┃ ┣obs_init_module(decklink-ouput-ui.so): 0.492 ms
03:01:02 PM IST.290:      ┃ ┣obs_init_module(frontend-tools.so): 30.863 ms
03:01:02 PM IST.290:      ┃ ┣obs_init_module(image-source.so): 0.006 ms
03:01:02 PM IST.290:      ┃ ┣obs_init_module(linux-alsa.so): 0.002 ms
03:01:02 PM IST.290:      ┃ ┣obs_init_module(linux-capture.so): 0.264 ms
03:01:02 PM IST.290:      ┃ ┣obs_init_module(linux-decklink.so): 0.098 ms
03:01:02 PM IST.290:      ┃ ┣obs_init_module(linux-jack.so): 0.002 ms
03:01:02 PM IST.290:      ┃ ┣obs_init_module(linux-pulseaudio.so): 0.003 ms
03:01:02 PM IST.290:      ┃ ┣obs_init_module(linux-v4l2.so): 4.721 ms
03:01:02 PM IST.290:      ┃ ┣obs_init_module(obs-ffmpeg.so): 0.841 ms
03:01:02 PM IST.290:      ┃ ┃ ┗nvenc_check: 0.689 ms
03:01:02 PM IST.290:      ┃ ┣obs_init_module(obs-filters.so): 0.037 ms
03:01:02 PM IST.290:      ┃ ┣obs_init_module(obs-outputs.so): 0.001 ms
03:01:02 PM IST.290:      ┃ ┣obs_init_module(obs-transitions.so): 0.006 ms
03:01:02 PM IST.290:      ┃ ┣obs_init_module(obs-x264.so): 0.002 ms
03:01:02 PM IST.290:      ┃ ┣obs_init_module(rtmp-services.so): 0.707 ms
03:01:02 PM IST.290:      ┃ ┣obs_init_module(text-freetype2.so): 0.008 ms
03:01:02 PM IST.290:      ┃ ┗obs_init_module(vlc-video.so): 0.858 ms
03:01:02 PM IST.290:      ┣OBSBasic::ResetOutputs: 0.094 ms
03:01:02 PM IST.290:      ┣OBSBasic::CreateHotkeys: 0.028 ms
03:01:02 PM IST.290:      ┣OBSBasic::InitService: 1.109 ms
03:01:02 PM IST.290:      ┣OBSBasic::InitPrimitives: 0.191 ms
03:01:02 PM IST.290:      ┗OBSBasic::Load: 15.439 ms
03:01:02 PM IST.290: obs_hotkey_thread(25 ms): min=0.064 ms, median=0.221 ms, max=15.004 ms, 99th percentile=1.376 ms, 100% below 25 ms
03:01:02 PM IST.290: audio_thread(Audio): min=0 ms, median=0.065 ms, max=55.713 ms, 99th percentile=0.528 ms
03:01:02 PM IST.290: obs_graphics_thread(33.3333 ms): min=0.326 ms, median=1.601 ms, max=67.596 ms, 99th percentile=8.674 ms, 99.976% below 33.333 ms
03:01:02 PM IST.290:  ┣tick_sources: min=0.001 ms, median=0.229 ms, max=12.892 ms, 99th percentile=1.512 ms
03:01:02 PM IST.290:  ┣output_frame: min=0.134 ms, median=0.75 ms, max=65.542 ms, 99th percentile=2.945 ms
03:01:02 PM IST.290:  ┃ ┗gs_context(video->graphics): min=0.133 ms, median=0.75 ms, max=65.541 ms, 99th percentile=2.944 ms
03:01:02 PM IST.290:  ┃   ┣render_video: min=0.05 ms, median=0.457 ms, max=65.391 ms, 99th percentile=2.231 ms
03:01:02 PM IST.290:  ┃   ┃ ┗render_main_texture: min=0.041 ms, median=0.409 ms, max=65.361 ms, 99th percentile=2.185 ms
03:01:02 PM IST.290:  ┃   ┗gs_flush: min=0.003 ms, median=0.006 ms, max=1.368 ms, 99th percentile=0.04 ms
03:01:02 PM IST.290:  ┗render_displays: min=0.053 ms, median=0.442 ms, max=19.996 ms, 99th percentile=4.484 ms
03:01:02 PM IST.290: =================================================
03:01:02 PM IST.290: == Profiler Time Between Calls ==================
03:01:02 PM IST.290: obs_hotkey_thread(25 ms): min=25.103 ms, median=25.303 ms, max=40.066 ms, 72.837% within ±2% of 25 ms (0% lower, 27.163% higher)
03:01:02 PM IST.290: obs_graphics_thread(33.3333 ms): min=30.287 ms, median=33.333 ms, max=67.6 ms, 99.7118% within ±2% of 33.333 ms (0.144092% lower, 0.144092% higher)
03:01:02 PM IST.290: =================================================
03:01:02 PM IST.314: Number of memory leaks: 0
