05:04:27 PM IST.830: CPU Name: Intel(R) Core(TM) i7-10510U CPU @ 1.80GHz
05:04:27 PM IST.830: CPU Speed: 2300.000MHz
05:04:27 PM IST.830: Physical Cores: 4, Logical Cores: 8
05:04:27 PM IST.830: Physical Memory: 7790MB Total, 5240MB Free
05:04:27 PM IST.830: Kernel Version: Linux 5.15.8-76051508-generic
05:04:27 PM IST.830: Distribution: "Pop!_OS" "21.10"
05:04:27 PM IST.830: Session Type: x11
05:04:27 PM IST.830: Window System: X11.0, Vendor: The X.Org Foundation, Version: 1.20.13
05:04:27 PM IST.832: Portable mode: false
05:04:27 PM IST.933: OBS 27.0.1+dfsg1-1 (linux)
05:04:27 PM IST.933: ---------------------------------
05:04:27 PM IST.998: ---------------------------------
05:04:27 PM IST.998: audio settings reset:
05:04:27 PM IST.998: 	samples per sec: 48000
05:04:27 PM IST.998: 	speakers:        2
05:04:28 PM IST.008: ---------------------------------
05:04:28 PM IST.008: Initializing OpenGL...
05:04:28 PM IST.053: Loading up OpenGL on adapter Intel Mesa Intel(R) UHD Graphics (CML GT2)
05:04:28 PM IST.053: OpenGL loaded successfully, version 4.6 (Core Profile) Mesa 21.2.2, shading language 4.60
05:04:28 PM IST.093: ---------------------------------
05:04:28 PM IST.093: video settings reset:
05:04:28 PM IST.093: 	base resolution:   1920x1080
05:04:28 PM IST.093: 	output resolution: 1280x720
05:04:28 PM IST.093: 	downscale filter:  Bicubic
05:04:28 PM IST.093: 	fps:               30/1
05:04:28 PM IST.093: 	format:            NV12
05:04:28 PM IST.093: 	YUV mode:          709/Partial
05:04:28 PM IST.093: NV12 texture support not available
05:04:28 PM IST.096: Audio monitoring device:
05:04:28 PM IST.096: 	name: Default
05:04:28 PM IST.096: 	id: default
05:04:28 PM IST.096: ---------------------------------
05:04:28 PM IST.098: Failed to load 'en-US' text for module: 'decklink-captions.so'
05:04:28 PM IST.104: Failed to load 'en-US' text for module: 'decklink-ouput-ui.so'
05:04:28 PM IST.200: A DeckLink iterator could not be created.  The DeckLink drivers may not be installed
05:04:28 PM IST.200: No blackmagic support
05:04:28 PM IST.210: v4l2loopback not installed, virtual camera disabled
05:04:28 PM IST.297: NVENC supported
05:04:28 PM IST.297: FFMPEG VAAPI supported
05:04:28 PM IST.320: VLC found, VLC video source enabled
05:04:28 PM IST.320: ---------------------------------
05:04:28 PM IST.320:   Loaded Modules:
05:04:28 PM IST.320:     vlc-video.so
05:04:28 PM IST.320:     text-freetype2.so
05:04:28 PM IST.320:     rtmp-services.so
05:04:28 PM IST.320:     obs-x264.so
05:04:28 PM IST.320:     obs-transitions.so
05:04:28 PM IST.320:     obs-outputs.so
05:04:28 PM IST.320:     obs-filters.so
05:04:28 PM IST.320:     obs-ffmpeg.so
05:04:28 PM IST.320:     linux-v4l2.so
05:04:28 PM IST.320:     linux-pulseaudio.so
05:04:28 PM IST.320:     linux-jack.so
05:04:28 PM IST.320:     linux-decklink.so
05:04:28 PM IST.320:     linux-capture.so
05:04:28 PM IST.320:     linux-alsa.so
05:04:28 PM IST.320:     image-source.so
05:04:28 PM IST.320:     frontend-tools.so
05:04:28 PM IST.320:     decklink-ouput-ui.so
05:04:28 PM IST.320:     decklink-captions.so
05:04:28 PM IST.320: ---------------------------------
05:04:28 PM IST.321: ==== Startup complete ===============================================
05:04:28 PM IST.326: All scene data cleared
05:04:28 PM IST.326: ------------------------------------------------
05:04:28 PM IST.336: pulse-input: Server name: 'pulseaudio 15.0'
05:04:28 PM IST.336: pulse-input: Audio format: s16le, 44100 Hz, 2 channels
05:04:28 PM IST.336: pulse-input: Started recording from 'alsa_output.pci-0000_00_1f.3.analog-stereo.monitor'
05:04:28 PM IST.336: [Loaded global audio device]: 'Desktop Audio'
05:04:28 PM IST.336: pulse-input: Server name: 'pulseaudio 15.0'
05:04:28 PM IST.337: pulse-input: Audio format: s16le, 44100 Hz, 2 channels
05:04:28 PM IST.337: pulse-input: Started recording from 'alsa_input.pci-0000_00_1f.3.analog-stereo'
05:04:28 PM IST.337: [Loaded global audio device]: 'Mic/Aux'
05:04:28 PM IST.380: Switched to scene 'Scene'
05:04:28 PM IST.381: ------------------------------------------------
05:04:28 PM IST.381: Loaded scenes:
05:04:28 PM IST.381: - scene 'Scene':
05:04:28 PM IST.381:     - source: 'Window Capture (Xcomposite)' (xcomposite_input)
05:04:28 PM IST.381:     - source: 'VLC Video Source' (vlc_source)
05:04:28 PM IST.381: ------------------------------------------------
05:04:28 PM IST.547: adding 21 milliseconds of audio buffering, total audio buffering is now 21 milliseconds (source: VLC Video Source)
05:04:28 PM IST.547: 
05:04:32 PM IST.567: xcompcap: [window-capture: 'Window Capture (Xcomposite)'] update settings:
05:04:32 PM IST.567: 	title: Spotify
05:04:32 PM IST.567: 	class: spotify
05:04:32 PM IST.567: 	Bit depth: 24
05:04:32 PM IST.567: 	Found proper GLXFBConfig (in 392): yes
05:04:32 PM IST.567: 
05:04:50 PM IST.641: xshm-input: Geometry 1920x1080 @ 0,0
05:04:50 PM IST.664: User added source 'Screen Capture (XSHM)' (xshm_input) to scene 'Scene'
05:05:07 PM IST.047: ---------------------------------
05:05:07 PM IST.047: [NVENC encoder: 'simple_h264_stream'] settings:
05:05:07 PM IST.047: 	rate_control: CBR
05:05:07 PM IST.047: 	bitrate:      2500
05:05:07 PM IST.047: 	cqp:          0
05:05:07 PM IST.047: 	keyint:       60
05:05:07 PM IST.047: 	preset:       hq
05:05:07 PM IST.047: 	profile:      high
05:05:07 PM IST.047: 	width:        1280
05:05:07 PM IST.047: 	height:       720
05:05:07 PM IST.047: 	2-pass:       false
05:05:07 PM IST.047: 	b-frames:     2
05:05:07 PM IST.047: 	psycho-aq:    1
05:05:07 PM IST.047: 	GPU:          0
05:05:07 PM IST.047: 
05:05:07 PM IST.246: [NVENC encoder: 'simple_h264_stream'] Failed to open NVENC codec: Generic error in an external library
05:05:07 PM IST.246: [NVENC encoder] nvenc_create_internal failed, trying again without Psycho Visual Tuning
05:05:07 PM IST.246: ---------------------------------
05:05:07 PM IST.246: [NVENC encoder: 'simple_h264_stream'] settings:
05:05:07 PM IST.246: 	rate_control: CBR
05:05:07 PM IST.246: 	bitrate:      2500
05:05:07 PM IST.246: 	cqp:          0
05:05:07 PM IST.246: 	keyint:       60
05:05:07 PM IST.246: 	preset:       hq
05:05:07 PM IST.246: 	profile:      high
05:05:07 PM IST.246: 	width:        1280
05:05:07 PM IST.246: 	height:       720
05:05:07 PM IST.246: 	2-pass:       false
05:05:07 PM IST.246: 	b-frames:     2
05:05:07 PM IST.246: 	psycho-aq:    0
05:05:07 PM IST.246: 	GPU:          0
05:05:07 PM IST.246: 
05:05:07 PM IST.336: [NVENC encoder: 'simple_h264_stream'] Failed to open NVENC codec: Generic error in an external library
05:05:07 PM IST.336: Stream output type 'rtmp_output' failed to start!  Last Error: Failed to open NVENC codec: Generic error in an external library
05:05:07 PM IST.336: 
05:05:07 PM IST.336: Check your video drivers are up to date. Try closing other recording software which might be using NVENC such as NVIDIA Shadowplay or Windows 10 Game DVR.
05:05:24 PM IST.191: Settings changed (outputs)
05:05:24 PM IST.192: ------------------------------------------------
05:05:25 PM IST.971: ---------------------------------
05:05:25 PM IST.971: [x264 encoder: 'simple_h264_stream'] preset: veryfast
05:05:25 PM IST.973: [x264 encoder: 'simple_h264_stream'] settings:
05:05:25 PM IST.973: 	rate_control: CBR
05:05:25 PM IST.973: 	bitrate:      2500
05:05:25 PM IST.973: 	buffer size:  2500
05:05:25 PM IST.973: 	crf:          23
05:05:25 PM IST.973: 	fps_num:      30
05:05:25 PM IST.973: 	fps_den:      1
05:05:25 PM IST.973: 	width:        1280
05:05:25 PM IST.973: 	height:       720
05:05:25 PM IST.973: 	keyint:       60
05:05:25 PM IST.973: 
05:05:25 PM IST.980: ---------------------------------
05:05:25 PM IST.980: [FFmpeg aac encoder: 'simple_aac'] bitrate: 160, channels: 2, channel_layout: 3
05:05:25 PM IST.980: 
05:05:25 PM IST.982: [rtmp stream: 'simple_stream'] Connecting to RTMP URL rtmps://a.rtmps.youtube.com:443/live2...
05:05:27 PM IST.624: [rtmp stream: 'simple_stream'] Connection to rtmps://a.rtmps.youtube.com:443/live2 successful
05:05:27 PM IST.637: ==== Streaming Start ===============================================
05:14:06 PM IST.710: [rtmp stream: 'simple_stream'] User stopped the stream
05:14:06 PM IST.711: Output 'simple_stream': stopping
05:14:06 PM IST.711: Output 'simple_stream': Total frames output: 15546
05:14:06 PM IST.711: Output 'simple_stream': Total drawn frames: 15622
05:14:06 PM IST.716: ==== Streaming Stop ================================================
05:14:12 PM IST.117: ==== Shutting down ==================================================
05:14:12 PM IST.148: pulse-input: Stopped recording from 'alsa_output.pci-0000_00_1f.3.analog-stereo.monitor'
05:14:12 PM IST.148: pulse-input: Got 70029 packets with 25714115 frames
05:14:12 PM IST.148: pulse-input: Stopped recording from 'alsa_input.pci-0000_00_1f.3.analog-stereo'
05:14:12 PM IST.148: pulse-input: Got 59786 packets with 25742392 frames
05:14:12 PM IST.149: All scene data cleared
05:14:12 PM IST.149: ------------------------------------------------
05:14:12 PM IST.204: [Scripting] Total detached callbacks: 0
05:14:12 PM IST.222: Freeing OBS context data
05:14:12 PM IST.245: == Profiler Results =============================
05:14:12 PM IST.245: run_program_init: 795.928 ms
05:14:12 PM IST.245:  ┣OBSApp::AppInit: 4.792 ms
05:14:12 PM IST.245:  ┃ ┗OBSApp::InitLocale: 2.555 ms
05:14:12 PM IST.245:  ┗OBSApp::OBSInit: 655.624 ms
05:14:12 PM IST.245:    ┣obs_startup: 23.209 ms
05:14:12 PM IST.245:    ┗OBSBasic::OBSInit: 466.039 ms
05:14:12 PM IST.245:      ┣OBSBasic::InitBasicConfig: 0.072 ms
05:14:12 PM IST.245:      ┣OBSBasic::ResetAudio: 0.092 ms
05:14:12 PM IST.245:      ┣OBSBasic::ResetVideo: 97.83 ms
05:14:12 PM IST.245:      ┣OBSBasic::InitOBSCallbacks: 0.006 ms
05:14:12 PM IST.245:      ┣OBSBasic::InitHotkeys: 0.043 ms
05:14:12 PM IST.245:      ┣obs_load_all_modules: 224.059 ms
05:14:12 PM IST.245:      ┃ ┣obs_init_module(decklink-captions.so): 0.032 ms
05:14:12 PM IST.245:      ┃ ┣obs_init_module(decklink-ouput-ui.so): 1.623 ms
05:14:12 PM IST.245:      ┃ ┣obs_init_module(frontend-tools.so): 73.451 ms
05:14:12 PM IST.245:      ┃ ┣obs_init_module(image-source.so): 0.011 ms
05:14:12 PM IST.245:      ┃ ┣obs_init_module(linux-alsa.so): 0.003 ms
05:14:12 PM IST.245:      ┃ ┣obs_init_module(linux-capture.so): 0.395 ms
05:14:12 PM IST.245:      ┃ ┣obs_init_module(linux-decklink.so): 0.102 ms
05:14:12 PM IST.245:      ┃ ┣obs_init_module(linux-jack.so): 0.001 ms
05:14:12 PM IST.245:      ┃ ┣obs_init_module(linux-pulseaudio.so): 0.002 ms
05:14:12 PM IST.245:      ┃ ┣obs_init_module(linux-v4l2.so): 1.553 ms
05:14:12 PM IST.245:      ┃ ┣obs_init_module(obs-ffmpeg.so): 12.115 ms
05:14:12 PM IST.245:      ┃ ┃ ┗nvenc_check: 12.044 ms
05:14:12 PM IST.245:      ┃ ┣obs_init_module(obs-filters.so): 0.026 ms
05:14:12 PM IST.245:      ┃ ┣obs_init_module(obs-outputs.so): 0.002 ms
05:14:12 PM IST.245:      ┃ ┣obs_init_module(obs-transitions.so): 0.008 ms
05:14:12 PM IST.245:      ┃ ┣obs_init_module(obs-x264.so): 0.002 ms
05:14:12 PM IST.245:      ┃ ┣obs_init_module(rtmp-services.so): 1.561 ms
05:14:12 PM IST.245:      ┃ ┣obs_init_module(text-freetype2.so): 0.01 ms
05:14:12 PM IST.245:      ┃ ┗obs_init_module(vlc-video.so): 3.223 ms
05:14:12 PM IST.245:      ┣OBSBasic::ResetOutputs: 1.047 ms
05:14:12 PM IST.245:      ┣OBSBasic::CreateHotkeys: 0.062 ms
05:14:12 PM IST.245:      ┣OBSBasic::InitService: 2.164 ms
05:14:12 PM IST.245:      ┣OBSBasic::InitPrimitives: 0.191 ms
05:14:12 PM IST.245:      ┗OBSBasic::Load: 59.584 ms
05:14:12 PM IST.245: obs_hotkey_thread(25 ms): min=0.067 ms, median=0.71 ms, max=29.315 ms, 99th percentile=5.683 ms, 99.9955% below 25 ms
05:14:12 PM IST.246: audio_thread(Audio): min=0 ms, median=0.442 ms, max=5.883 ms, 99th percentile=2.106 ms
05:14:12 PM IST.246:  ┗receive_audio: min=0.002 ms, median=0.381 ms, max=4.691 ms, 99th percentile=1.761 ms, 0.902589 calls per parent call
05:14:12 PM IST.246:    ┣buffer_audio: min=0.001 ms, median=0.002 ms, max=0.215 ms, 99th percentile=0.011 ms
05:14:12 PM IST.246:    ┗do_encode: min=0.08 ms, median=0.373 ms, max=4.676 ms, 99th percentile=1.748 ms
05:14:12 PM IST.246:      ┗encode(simple_aac): min=0.078 ms, median=0.353 ms, max=4.642 ms, 99th percentile=1.7 ms
05:14:12 PM IST.246: obs_graphics_thread(33.3333 ms): min=0.043 ms, median=14.077 ms, max=59.946 ms, 99th percentile=20.031 ms, 99.9715% below 33.333 ms
05:14:12 PM IST.246:  ┣tick_sources: min=0.001 ms, median=6.12 ms, max=38.152 ms, 99th percentile=9.312 ms
05:14:12 PM IST.246:  ┣output_frame: min=0.022 ms, median=7.927 ms, max=51.451 ms, 99th percentile=10.145 ms
05:14:12 PM IST.246:  ┃ ┣gs_context(video->graphics): min=0.022 ms, median=7.609 ms, max=51.451 ms, 99th percentile=9.722 ms
05:14:12 PM IST.246:  ┃ ┃ ┣render_video: min=0.016 ms, median=7.548 ms, max=51.41 ms, 99th percentile=9.641 ms
05:14:12 PM IST.246:  ┃ ┃ ┃ ┣render_main_texture: min=0.013 ms, median=0.127 ms, max=4.193 ms, 99th percentile=0.325 ms
05:14:12 PM IST.246:  ┃ ┃ ┃ ┣render_output_texture: min=0.016 ms, median=0.036 ms, max=38.863 ms, 99th percentile=0.094 ms, 0.888718 calls per parent call
05:14:12 PM IST.246:  ┃ ┃ ┃ ┣render_convert_texture: min=0.018 ms, median=0.041 ms, max=8.383 ms, 99th percentile=0.102 ms, 0.888718 calls per parent call
05:14:12 PM IST.246:  ┃ ┃ ┃ ┗stage_output_texture: min=3.978 ms, median=7.35 ms, max=14.831 ms, 99th percentile=9.458 ms, 0.888718 calls per parent call
05:14:12 PM IST.246:  ┃ ┃ ┣gs_flush: min=0.002 ms, median=0.005 ms, max=1.78 ms, 99th percentile=0.186 ms
05:14:12 PM IST.246:  ┃ ┃ ┗download_frame: min=0 ms, median=0.008 ms, max=0.814 ms, 99th percentile=0.025 ms, 0.888718 calls per parent call
05:14:12 PM IST.246:  ┃ ┗output_video_data: min=0.178 ms, median=0.269 ms, max=3.708 ms, 99th percentile=0.612 ms, 0.888661 calls per parent call
05:14:12 PM IST.246:  ┗render_displays: min=0.001 ms, median=0.027 ms, max=35.078 ms, 99th percentile=2.477 ms
05:14:12 PM IST.246: OBSBasic::ResetOutputs: 1.649 ms
05:14:12 PM IST.246: video_thread(video): min=0.688 ms, median=1.441 ms, max=8.587 ms, 99th percentile=3.818 ms
05:14:12 PM IST.246:  ┗receive_video: min=0.687 ms, median=1.438 ms, max=8.581 ms, 99th percentile=3.812 ms
05:14:12 PM IST.246:    ┗do_encode: min=0.686 ms, median=1.436 ms, max=8.578 ms, 99th percentile=3.808 ms
05:14:12 PM IST.246:      ┗encode(simple_h264_stream): min=0.677 ms, median=1.397 ms, max=8.574 ms, 99th percentile=3.691 ms
05:14:12 PM IST.246: =================================================
05:14:12 PM IST.246: == Profiler Time Between Calls ==================
05:14:12 PM IST.246: obs_hotkey_thread(25 ms): min=25.129 ms, median=25.833 ms, max=54.38 ms, 13.2287% within ±2% of 25 ms (0% lower, 86.7713% higher)
05:14:12 PM IST.246: obs_graphics_thread(33.3333 ms): min=16.175 ms, median=33.332 ms, max=59.958 ms, 99.6062% within ±2% of 33.333 ms (0.199749% lower, 0.194042% higher)
05:14:12 PM IST.246: =================================================
05:14:12 PM IST.338: Number of memory leaks: 0
