﻿Topic Name,Topic Group,Level,Order
What is React?,General,Initial,1
React components definition,Components,Initial,2
Portals,DOM,,
setState,State,Medium,
Higher-Order Components,Components,Advanced,