﻿Name,Assign,Depends on,Features,Focus,Type
JavaScript,,,,Fullstack,Programming Language 📝
TypeScript,,JavaScript,Strongly typed,Frontend,Programming Language 📝
Heroku,,,,Fullstack,Deployment 🚀
Netlify,,,Git-based,Frontend,Deployment 🚀
Firebase,,,"Database, Storage",Backend,Deployment 🚀
React,,JavaScript,,Frontend,Library 📚
CSS,,,,,Markup and Declarative Languages 🏛
HTML,,,,,Markup and Declarative Languages 🏛
SASS,,CSS,,Frontend,Preprocessor ⚙️