{
	"$schema": "https://joplinapp.org/schema/settings.json",
	"locale": "en_GB",
	"api.token": "bb15df0844b476017616e4f566a7791af03e5eb76fe7b688d9d50c7363ecbb25d2f118034fd5b3eb0d81410f285a2da4fcea1335a9da5cc222b070caa4bf3de0",
	"markdown.plugin.softbreaks": false,
	"markdown.plugin.typographer": false,
	"spellChecker.language": "en-GB",
	"ui.layout": {
		"key": "root",
		"children": [
			{
				"key": "sideBar",
				"width": 215,
				"visible": true
			},
			{
				"key": "noteList",
				"width": 337,
				"visible": true
			},
			{
				"key": "editor",
				"visible": true
			}
		],
		"visible": true
	},
	"noteVisiblePanes": [
		"editor",
		"viewer"
	],
	"sync.target": 5,
	"theme": 22,
	"windowContentZoomFactor": 120,
	"sync.5.path": "https://sam.nl.tab.digital/remote.php/dav/files/anindra@e.email/Joplin/",
	"sync.5.username": "anindra@e.email",
	"sync.wipeOutFailSafe": false,
	"editor.codeView": true
}
